…
``` r

# Map: every Level 4 chemical class → all Level 5 substances in it
class_to_drug <- atc_codes %>%
  filter(level == 5) %>%
  mutate(chemical_class = substr(atc_code, 1, 5)) %>%
  select(chemical_class, substance_code = atc_code, substance_name = atc_name)

# Which chemical classes contain "fluoroquinolone"?
atc_codes %>%
  filter(level == 4, grepl("fluoroquinolone", atc_name, ignore.case = TRUE)) %>%
  inner_join(class_to_drug, by = c("atc_code" = "chemical_class")) %>%
  select(chemical_class = atc_code, class_name = atc_name,
         substance_code, substance_name)
#> # A tibble: 33 × 4
#>    chemical_class class_name       substance_code substance_name
#>    <chr>          <chr>            <chr>          <chr>         
#>  1 J01MA          Fluoroquinolones J01MA01        ofloxacin     
#>  2 J01MA          Fluoroquinolones J01MA02        ciprofloxacin 
#>  3 J01MA          Fluoroquinolones J01MA03        pefloxacin    
#>  4 J01MA          Fluoroquinolones J01MA04        enoxacin      
#>  5 J01MA          Fluoroquinolones J01MA05        temafloxacin  
#>  6 J01MA          Fluoroquinolones J01MA06        norfloxacin   
#>  7 J01MA          Fluoroquinolones J01MA07        lomefloxacin  
#>  8 J01MA          Fluoroquinolones J01MA08        fleroxacin    
#>  9 J01MA          Fluoroquinolones J01MA09        sparfloxacin  
#> 10 J01MA          Fluoroquinolones J01MA10        rufloxacin    
#> # ℹ 23 more rows
```
…
