…
# Get data for all analgesics (Level 2)
get_atc_data("N02")
#> No data available for the requested codes.
#> NULL

# Get cardiovascular and nervous system main groups
get_atc_data(c("C", "N"))
#> No data available for the requested codes.
#> NULL

# Get all child codes under opioids
get_atc_data("N02A", include_children = TRUE)
#> # A tibble: 91 × 6
#>    atc_code level ddd   uom   adm_r note 
#>    <chr>    <int> <chr> <chr> <chr> <chr>
#>  1 N02AA        4 NA    NA    NA    NA   
#>  2 N02AA01      5 0.1   g     O     NA   
#>  3 N02AA01      5 30    mg    P     NA   
#>  4 N02AA01      5 30    mg    R     NA   
#>  5 N02AA02      5 NA    NA    NA    NA   
#>  6 N02AA03      5 20    mg    O     NA   
#>  7 N02AA03      5 4     mg    P     NA   
#>  8 N02AA03      5 4     mg    R     NA   
#>  9 N02AA04      5 30    mg    O     NA   
#> 10 N02AA04      5 30    mg    P     NA   
#> # ℹ 81 more rows
…
